[gd_scene load_steps=4 format=2]

[ext_resource path="res://Scenes/Main/Interface/Scoreboard/Header.tscn" type="PackedScene" id=1]
[ext_resource path="res://Fonts/Presets/small.tres" type="DynamicFont" id=2]

[sub_resource type="StyleBoxEmpty" id=1]

[node name="PlayerScore" instance=ExtResource( 1 )]
anchor_right = 0.375
anchor_bottom = 0.052
margin_right = -3.05176e-05
margin_bottom = -0.200001
custom_styles/panel = SubResource( 1 )

[node name="Player" parent="." index="0"]
custom_fonts/font = ExtResource( 2 )
text = "Giov4"

[node name="Score" parent="." index="1"]
custom_fonts/font = ExtResource( 2 )
text = "125"

[node name="TDs" parent="." index="2"]
custom_fonts/font = ExtResource( 2 )
text = "3"
