[gd_resource type="DynamicFont" load_steps=2 format=2]

[ext_resource path="res://Fonts/Oxanium/static/Oxanium-Medium.ttf" type="DynamicFontData" id=1]

[resource]
size = 40
use_mipmaps = true
use_filter = true
extra_spacing_char = 1
font_data = ExtResource( 1 )
